{
  "menu": [
    {
      "url": "/dashboard",
      "name": "Home",
      "icon": "menu-icon tf-icons ti ti-smart-home",
      "slug": "welcome"
    },
    {
      "url": "admin/tutor",
      "name": "Guru's",
      "icon": "menu-icon tf-icons ti ti-users",
      "slug": "tutor.index"
    },
    {
      "url": "admin/user",
      "name": "Buddy's",
      "icon": "menu-icon tf-icons ti ti-users",
      "slug": "user.index"
    },
    {
      "name": "CMS",
      "icon": "menu-icon tf-icons ti ti-id",
      "slug": "cms",
      "badge": [
        "primary",
        "4"
      ],
      "submenu": [
        {
          "url": "admin/applied/gurus",
          "name": "Applied Gurus",
          "slug": "cms-applied_gurus.index"
        },
        {
          "url": "admin/videos",
          "name": "Trending Videos",
          "slug": "cms-videos.index"
        },
        {
          "url": "admin/country",
          "name": "Country",
          "slug": "cms-country.index"
        },
        {
          "url": "/admin/category",
          "name": "Category Set",
          "slug": "cms-category.index"
        },
        {
          "url": "/admin/skill",
          "name": "Category Skill",
          "slug": "cms-skill.index"
        },
        {
          "url": "/admin/region",
          "name": "Region",
          "slug": "cms-region.index"
        }
       
      ]
    },

    {
      "name": "General Settings",
      "icon": "menu-icon tf-icons ti ti-settings",
      "slug": "general",
      "badge": [
        "danger",
        "4"
      ],
      "submenu": [
        {
          "url": "/admin/generalsetting/view-currency",
          "name": "Currency Settings",
          "slug": "general-admin.settings.viewCurrency"
        },
        {
          "url": "/admin/generalsetting/tier",
          "name": "Tier Management",
          "slug": "general-admin.tier.index"
        },
        {
          "url": "/admin/generalsetting/tier/currencyRange",
          "name": "Currency Range Mapping",
          "slug": "general-admin.tier.currency_range.index"
        },
        {
          "url": "/admin/generalsetting",
          "name": "Commision",
          "slug": "general-generalsetting.index"
        }
      ]
    },
   
    {
      "url": "admin/tutor",
      "name": "Help Desk",
      "icon": "menu-icon fa fa-desktop",
      "slug": ""
    },
    {
      "url": "admin/tutor",
      "name": "Logout",
      "icon": "menu-icon fa fa-sign-out",
      "slug": ""
    }
  ]
}
